Análisis de preguntas relacionadas con recetarios oficiales
…
##  [1]  660.00  799.00  605.68  811.00 1200.00  400.00  500.00 1530.00  240.00
## [10]  606.00  300.00 1119.00  500.00 1160.00  568.00  300.00

df$CodigoDepartamento

##  [1] "23" "08" "05" "47" "13" "54" "41" "85" "73" "63" "15" "76" "95" "86" "52"
## [16] "19"

df_total <- df %>% 
  right_join(colombiaGeoDF, by = c('CodigoDepartamento' = 'DPTO'))

df_total

## # A tibble: 33 x 189
##    `Marca temporal`    `Nombre del encue~ `Nombre del funci~ `Nombre del funcio~
##    <dttm>              <chr>              <chr>              <chr>              
##  1 2021-05-08 15:55:12 Carlos Guillermo ~ Heliodoro Kerguel~ Erick Novoa        
##  2 2021-05-10 08:38:47 Wilder Estiben Me~ Jovana Vitola Jul~ Leidy Llorente Vil~
##  3 2021-05-10 12:03:39 Carlos Guillermo ~ Paola Andrea Góme~ <NA>               
##  4 2021-05-21 15:23:40 Wilder Estiben Me~ Rafael Tapia Buen~ <NA>               
##  5 2021-05-23 15:36:50 Carlos Guillermo ~ Maria Eugenia Bar~ <NA>               
##  6 2021-05-25 21:56:53 Jhonathan Venegas  Amilcar Marquez    <NA>               
##  7 2021-05-26 11:17:20 Nicolás Alexander~ Diana Carolina Va~ Edimer Covaleda Yu~
##  8 2021-05-26 11:59:27 Nicolás Alexander~ Julieta Palacios ~ Jonathan Sánchez M~
##  9 2021-05-26 13:01:15 Nicolás Alexander~ Marly Julieth Esp~ <NA>               
## 10 2021-05-28 12:07:29 Wilder Estiben Me~ Adriana María Mur~ <NA>               
## # ... with 23 more rows, and 185 more variables: Fecha de la visita <dttm>,
## #   Departamento <chr>, Ciudad <chr>, Dirección <chr>, E-mail <chr>,
## #   Telefono <chr>, Acto administrativo de creación <chr>,
## #   Fecha creación FRE <dttm>, Nombre del Secretario de Salud <chr>,
## #   Nombre del Gobernador <chr>, Nombre del funcionario a cargo del FRE <chr>,
## #   Profesión del funcionario a cargo del FRE <chr>,
## #   Si la respuesta a la pregunta anterior fue "otro", indique cual:...17 <chr>, ...
…
